…
``` r
panelone <- dt1 %>% 
  select(
    month, truckID, revenue, cogs, gp, gpm
  ) %>% 
  group_by(month, truckID) %>% 
  summarize(SUMrev = sum(revenue),
            SUMcogs = sum(cogs),
            SUMgp = sum(gp),
            SUMgpm = sum(gpm)
            )
panelone #revenue, cogs, gp, and gpm of each truck by month
```

    ## # A tibble: 36 × 6
    ## # Groups:   month [12]
    ##    month truckID     SUMrev SUMcogs  SUMgp SUMgpm
    ##    <dbl> <chr>        <dbl>   <dbl>  <dbl>  <dbl>
    ##  1     1 metroFY     18793.   5750. 13043.  2803.
    ##  2     1 uniDistFY   23136.   6784. 16353.  2909.
    ##  3     2 metroFY     18268.   5587. 12682.  2729.
    ##  4     2 uniDistFY   22710.   6697. 16013.  2842.
    ##  5     3 metroFY     23492.   7188. 16304.  3496.
    ##  6     3 uniDistFY   28965.   8535. 20430.  3632.
    ##  7     4 metroFY     28571.   8770. 19801.  4235.
    ##  8     4 uniDistFY   35016.  10337. 24679.  4371.
    ##  9     5 metroFY     34385.  10538. 23847.  5105.
    ## 10     5 specEventHY 18459.   5741. 12718.  2529.
    ## # … with 26 more rows
…
<img src="https://github.com/AllyBMa/Portfolio/blob/main/Bebop%20Grilled%20Cheese/Media/Panel1_COGSpivot.jpg" height="100" /> <img src="https://github.com/AllyBMa/Portfolio/blob/main/Bebop%20Grilled%20Cheese/Media/Panel1_GPpivot.jpg" height="100" />

### Panel 2

Our second panel examined sales revenue for the year by truck, segmented
by product item and grouped into the three product categories: main,
snack, and drink.

``` r
paneltwo <- dt1 %>% 
  select(truckID, group, item, revenue)
paneltwo # revenue made by each item at each truck
```

    ## # A tibble: 195,728 × 4
    ##    truckID group item                                               revenue
    ##    <chr>   <chr> <chr>                                                <dbl>
    ##  1 metroFY Snack Hand Cut Truffle Fries                                4.81
    ##  2 metroFY Main  Veggie Burger                                         7.94
    ##  3 metroFY Drink Coffee                                                1.49
    ##  4 metroFY Main  Grilled Cheese - Honey Bacon on Triple Cheese Melt    8.5 
    ##  5 metroFY Drink Coffee                                                1.49
    ##  6 metroFY Main  Veggie Burger                                         7.94
    ##  7 metroFY Drink Polar Soda                                            2.1 
    ##  8 metroFY Main  Grilled Cheese - Triple Cheese Melt                   6.49
    ##  9 metroFY Drink Polar Soda                                            2.1 
    ## 10 metroFY Snack Hand Cut Truffle Fries                                4.81
    ## # … with 195,718 more rows
…
``` r
dtq <-dt1 %>%
  group_by(group, item, truckID)%>%
  summarize(SUMq=sum(q))
dtq # number of each item sold at each truck
```

    ## # A tibble: 56 × 4
    ## # Groups:   group, item [17]
    ##    group item       truckID      SUMq
    ##    <chr> <chr>      <chr>       <dbl>
    ##  1 Drink Coffee     metroFY     14293
    ##  2 Drink Polar Soda metroFY     10209
    ##  3 Drink Polar Soda specEventHY  3691
    ##  4 Drink Polar Soda suburbHY     3525
    ##  5 Drink Polar Soda uniDistFY    4968
    ##  6 Drink RedBull    uniDistFY   11023
    ##  7 Drink Spindrift  metroFY      6533
    ##  8 Drink Spindrift  specEventHY  2679
    ##  9 Drink Spindrift  suburbHY     5245
    ## 10 Drink Spindrift  uniDistFY    7610
    ## # … with 46 more rows
…
### Panel 5

The aim of panel five was to identify well performing product items and
groups and areas of improvement.

``` r
dtproduct <- dt1 %>%
  group_by(item)%>%
  select(truckID, item, group, gpm)%>%
  distinct()
dtproduct # profit margin of each item
```

    ## # A tibble: 56 × 4
    ## # Groups:   item [17]
    ##    truckID item                                                group   gpm
    ##    <chr>   <chr>                                               <chr> <dbl>
    ##  1 metroFY Hand Cut Truffle Fries                              Snack 0.701
    ##  2 metroFY Veggie Burger                                       Main  0.610
    ##  3 metroFY Coffee                                              Drink 0.832
    ##  4 metroFY Grilled Cheese - Honey Bacon on Triple Cheese Melt  Main  0.7  
    ##  5 metroFY Polar Soda                                          Drink 0.767
    ##  6 metroFY Grilled Cheese - Triple Cheese Melt                 Main  0.700
    ##  7 metroFY Grilled Cheese - Buffalo Tofu Melt                  Main  0.699
    ##  8 metroFY Spindrift                                           Drink 0.650
    ##  9 metroFY Grilled Cheese - Bacon Guacamole Triple Cheese Melt Main  0.7  
    ## 10 metroFY Double Fried Chicken Sandwich                       Main  0.610
    ## # … with 46 more rows
…
